Tutorial for immunoediting model of selection using dN/dS
…
####Set value for the probability of the immune system to kill an immungenic population (PIs in the manuscript)
params['pattack'] = 0.5

Now that we have defined the parameters for the simulation, we will run one simulation using the command simulator:

M<-simulator(params)

The output is the following

M
#> # A tibble: 3,546 x 30
#>       id  pnad  pnap  pnai  pnae  pnak   pns   pnsi    pnsd  gnad  gnap  gnai
#>    <dbl> <dbl> <dbl> <dbl> <dbl> <dbl> <dbl>  <dbl>   <dbl> <dbl> <dbl> <dbl>
#>  1     1  0.01  0.63   0.1  0.01     0 0.213 0.0333 0.00333     0     0     0
#>  2     2  0.01  0.63   0.1  0.01     0 0.213 0.0333 0.00333     0     0     0
#>  3     3  0.01  0.63   0.1  0.01     0 0.213 0.0333 0.00333     0     0     0
#>  4     4  0.01  0.63   0.1  0.01     0 0.213 0.0333 0.00333     0     0     0
#>  5     5  0.01  0.63   0.1  0.01     0 0.213 0.0333 0.00333     0     0     0
#>  6     6  0.01  0.63   0.1  0.01     0 0.213 0.0333 0.00333     0     0     0
#>  7     7  0.01  0.63   0.1  0.01     0 0.213 0.0333 0.00333     0     0     0
#>  8     8  0.01  0.63   0.1  0.01     0 0.213 0.0333 0.00333     0     0     0
#>  9     9  0.01  0.63   0.1  0.01     0 0.213 0.0333 0.00333     0     0     0
#> 10    10  0.01  0.63   0.1  0.01     0 0.213 0.0333 0.00333     0     0     0
#>     gnae  gnak   gns  gnsi  gnsd strategy parent alive   t_0   t_e  dnds dnds_i
#>    <dbl> <dbl> <dbl> <dbl> <dbl> <chr>     <dbl> <lgl> <dbl> <dbl> <dbl>  <dbl>
#>  1     0     0     0     0     0 Survive       0 FALSE     0     1     1      1
#>  2     0     0     0     0     0 Survive       0 FALSE     0     1     1      1
#>  3     0     0     0     0     0 Survive       0 FALSE     0     1     1      1
#>  4     0     0     0     0     0 Survive       0 FALSE     0     1     1      1
#>  5     0     0     0     0     0 Death         0 FALSE     0     1     1      1
#>  6     0     0     0     0     0 Death         0 FALSE     0     1     1      1
#>  7     0     0     0     0     0 Death         0 FALSE     0     1     1      1
#>  8     0     0     0     0     0 Survive       0 FALSE     0     1     1      1
#>  9     0     0     0     0     0 Death         0 FALSE     0     1     1      1
#> 10     0     0     0     0     0 Survive       0 FALSE     0     1     1      1
#>    dnds_d psurv pimmune clone_id clone_I_id parent_clone_id
#>     <dbl> <dbl>   <dbl>    <dbl>      <dbl>           <dbl>
#>  1      1   0.5       0        0          0               0
#>  2      1   0.5       0        0          0               0
#>  3      1   0.5       0        0          0               0
#>  4      1   0.5       0        0          0               0
#>  5      1   0.5       0        0          0               0
#>  6      1   0.5       0        0          0               0
#>  7      1   0.5       0        0          0               0
#>  8      1   0.5       0        0          0               0
#>  9      1   0.5       0        0          0               0
#> 10      1   0.5       0        0          0               0
#> # … with 3,536 more rows
…
